<?xml version="1.0" encoding="UTF-8" standalone="no"?>
<!-- Created with Inkscape (http://www.inkscape.org/) -->

<svg
   width="720"
   height="256"
   viewBox="0 0 190.49999 67.733333"
   version="1.1"
   id="svg1"
   inkscape:version="1.3.2 (091e20ef0f, 2023-11-25)"
   sodipodi:docname="logo-text-rectangular-color.svg"
   xml:space="preserve"
   xmlns:inkscape="http://www.inkscape.org/namespaces/inkscape"
   xmlns:sodipodi="http://sodipodi.sourceforge.net/DTD/sodipodi-0.dtd"
   xmlns="http://www.w3.org/2000/svg"
   xmlns:svg="http://www.w3.org/2000/svg"><sodipodi:namedview
     id="namedview1"
     pagecolor="#cbcbcb"
     bordercolor="#000000"
     borderopacity="0.25"
     inkscape:showpageshadow="2"
     inkscape:pageopacity="0.0"
     inkscape:pagecheckerboard="0"
     inkscape:deskcolor="#d1d1d1"
     inkscape:document-units="px"
     showgrid="true"
     inkscape:zoom="0.57432538"
     inkscape:cx="320.37588"
     inkscape:cy="194.14082"
     inkscape:window-width="1366"
     inkscape:window-height="683"
     inkscape:window-x="0"
     inkscape:window-y="0"
     inkscape:window-maximized="1"
     inkscape:current-layer="layer3" /><defs
     id="defs1" /><g
     inkscape:groupmode="layer"
     id="layer3"
     inkscape:label="Layer 1"
     transform="matrix(0.7359461,0,0,0.7359461,8.9936757,0.30164079)"><path
       d="M 93.135982,35.294693 V 23.784474 h 5.660198 q 2.20886,0 3.26152,1.000888 1.06991,0.983632 1.06991,3.261517 0,0.241594 0,0.500444 0,0.241594 0.0173,0.483188 0,0.241594 0,0.483187 0,0.241594 0,0.483188 0,2.139831 -0.67301,3.727447 -0.67302,1.57036 -3.296033,1.57036 h -6.039845 z m 2.191601,-1.863724 h 3.123463 q 1.725664,0 2.070804,-0.880091 0.36239,-0.897349 0.36239,-2.346912 v -0.621241 q 0,-0.569471 -0.0173,-1.138942 0,-0.569471 -0.069,-1.121686 -0.1208,-1.018145 -0.72479,-1.328766 -0.586719,-0.31062 -1.48407,-0.31062 h -3.261517 v 7.748258 z m 14.855147,-0.707524 h 1.89823 q 0.0173,0.06903 0.0173,0.15531 0,0.06903 0,0.15531 0,1.639387 -1.10443,2.001777 -1.08717,0.345134 -2.43319,0.345134 -2.55399,0 -3.20975,-0.949118 -0.65575,-0.966375 -0.65575,-3.330543 0,-2.122574 0.69026,-3.03718 0.69027,-0.931861 2.9509,-0.931861 2.26063,0 3.00267,0.811065 0.75929,0.811064 0.75929,3.071692 l -0.0173,0.586728 h -5.47037 q 0,1.276996 0.25885,1.846467 0.27611,0.552214 1.72567,0.552214 0.60399,0 1.08717,-0.189823 0.50045,-0.189824 0.50045,-0.931862 z m 0.0345,-2.312398 q 0,-1.156199 -0.32788,-1.51859 -0.31062,-0.362391 -1.48407,-0.362391 -1.00089,0 -1.36328,0.293364 -0.36239,0.293364 -0.39691,1.328766 0,0.03451 0,0.06903 0,0.03451 0,0.05177 -0.0173,0.03451 -0.0173,0.06903 0,0.03451 0,0.06903 h 3.58939 z m 11.05868,-3.157976 v 8.041622 h -1.82921 l 0.0345,-1.311509 h -0.069 q -0.37965,0.862835 -1.01815,1.138942 -0.6385,0.276107 -1.5531,0.276107 -1.3978,0 -2.07081,-0.673011 -0.67301,-0.673011 -0.67301,-2.070804 v -5.401347 h 1.93275 V 32.223 q 0,0.862835 0.22434,1.276996 0.24159,0.396904 1.20797,0.396904 1.22522,0 1.5531,-0.534957 0.34514,-0.552215 0.34514,-1.639387 v -4.469485 h 1.91549 z m 8.97062,2.174344 h -1.84647 q 0,-0.569471 -0.34514,-0.776552 -0.32787,-0.224337 -0.84557,-0.224337 -0.10354,0 -0.20708,0 -0.10354,0 -0.20708,0 -0.1208,0.01726 -0.22434,0.01726 -0.10354,0 -0.20708,0 -0.48319,0 -0.88009,0.138053 -0.39691,0.120797 -0.39691,0.759295 0,0.638498 0.2416,0.828322 0.25885,0.172567 0.84557,0.20708 0.18983,0.01726 0.37965,0.01726 0.20708,0 0.41416,0 0.0863,0.01726 0.17257,0.01726 0.0863,0 0.17257,0 1.20797,0.03451 2.22611,0.396904 1.01815,0.345134 1.01815,1.93275 0,1.77744 -1.03541,2.226115 -1.01814,0.431417 -2.55399,0.431417 -0.20708,0 -0.43142,0 -0.20708,0 -0.43141,-0.01726 -1.10443,-0.03451 -2.01904,-0.41416 -0.9146,-0.396904 -0.9146,-1.77744 v -0.431418 h 1.95001 q 0,0.793808 0.31062,1.052659 0.32787,0.25885 1.08717,0.25885 h 0.58673 q 0.72478,0 1.13894,-0.15531 0.41416,-0.172567 0.41416,-0.983632 0,-0.621241 -0.29337,-0.776552 -0.29336,-0.172567 -0.84557,-0.189823 -0.10354,0 -0.20708,0 -0.10354,0 -0.18983,0 -0.10354,0 -0.20708,0 -0.10354,-0.01726 -0.20708,-0.01726 -1.38053,-0.01726 -2.43319,-0.345134 -1.05266,-0.345134 -1.05266,-2.157087 0,-1.656644 1.06991,-2.001778 1.08718,-0.345134 2.39868,-0.345134 0.25886,0 0.53496,0 0.27611,0 0.55222,0.01726 0.93186,0.06903 1.70841,0.448674 0.77655,0.379648 0.77655,1.51859 0,0.05177 0,0.10354 0,0.03451 0,0.06903 0,0.03451 -0.0172,0.08628 0,0.03451 0,0.08628 z m 9.31287,-3.813731 v 3.002666 h 5.40135 v 1.604873 h -5.40135 v 3.261516 h 5.72923 v 1.811954 h -7.86906 V 23.784474 h 7.81729 v 1.82921 z m 14.40646,1.62213 -2.34691,3.830987 2.60576,4.227892 h -2.27789 l -1.62213,-2.950896 -1.60487,2.950896 h -2.3124 l 2.65754,-4.227892 -2.34692,-3.830987 h 2.20886 l 1.39779,2.588505 1.3978,-2.588505 z"
       id="text1"
       style="font-size:17.2567px;font-family:Eurostile-Bold;-inkscape-font-specification:Eurostile-Bold;text-align:center;letter-spacing:0.359515px;text-anchor:middle;stroke-width:0.359515;stroke-linecap:round;stroke-linejoin:round;stroke-dashoffset:18.5507;paint-order:markers stroke fill;fill:#ffffff"
       aria-label="Deus Ex" /><ellipse
       style="fill:#ffffff;fill-opacity:1;stroke:none;stroke-width:0;stroke-linecap:round;stroke-linejoin:round;stroke-dashoffset:18.5507;paint-order:markers stroke fill"
       id="path5"
       cx="37.245293"
       cy="47.855247"
       rx="7.422091"
       ry="7.0841951" /><path
       style="fill:#ffffff;fill-opacity:1;stroke:none;stroke-width:0;stroke-linecap:round;stroke-linejoin:round;stroke-dashoffset:18.5507;paint-order:markers stroke fill"
       d="m 9.6775222,44.819166 c 0,0 7.4220918,-7.084197 11.8388488,-9.082164 25.731485,-2.619576 34.814295,12.118247 34.814295,12.118247 0,0 -14.844182,23.276641 -45.592844,1.012028 0,0 -2.1205968,2.024056 -3.1808966,4.048111 38.1707516,21.252587 55.1355336,-5.060139 55.1355336,-5.060139 0,-7.487068 -29.688365,-32.384893 -55.1355336,-24.28867 -3.1808938,4.048112 2.1205968,21.252587 2.1205968,21.252587 z"
       id="path6"
       sodipodi:nodetypes="cccccccc" /><path
       style="fill:#ffffff;fill-opacity:1;stroke:none;stroke-width:0;stroke-linecap:round;stroke-linejoin:round;stroke-dashoffset:18.5507;paint-order:markers stroke fill"
       d="m 34.380091,37.171228 c 0,0 -8.798087,1.57577 -16.220177,10.684021 1.060297,3.036084 10.602986,8.096224 10.602986,8.096224 0,0 -8.48239,-1.012029 -16.964778,-8.096224 C 13.1026,46.078546 21.97303,34.74827 34.380091,37.171228 Z"
       id="path7"
       sodipodi:nodetypes="ccccc" /><path
       id="path10"
       style="fill:#649cf1;fill-opacity:1;stroke:none;stroke-width:0.424507;stroke-linecap:round;stroke-linejoin:round;stroke-dasharray:none;stroke-dashoffset:18.5507;stroke-opacity:1;paint-order:markers stroke fill"
       d="M 60.368409,16.268355 A 22.323222,45.006586 58.275837 0 1 72.764891,22.273804 22.323222,45.006586 58.275837 0 1 47.649328,64.777897 22.323222,45.006586 58.275837 0 1 -3.1032602,70.662711 22.323222,45.006586 58.275837 0 1 -5.1242062,63.148565 23.543733,48.006595 58.252117 0 0 -3.3893885,74.28812 23.543733,48.006595 58.252117 0 0 50.592806,67.791157 23.543733,48.006595 58.252117 0 0 77.536645,22.673282 23.543733,48.006595 58.252117 0 0 60.368409,16.268355 Z" /><path
       id="path10-2-9"
       style="fill:#649cf1;fill-opacity:1;stroke:none;stroke-width:0.344641;stroke-linecap:round;stroke-linejoin:round;stroke-dasharray:none;stroke-dashoffset:18.5507;stroke-opacity:1;paint-order:markers stroke fill"
       d="M 7.3645496,41.968732 C -1.1863328,51.213185 -4.373707,60.939558 -0.24847839,66.831115 0.02535108,67.173498 0.32537522,67.498469 0.65105488,67.805443 -1.8507365,62.667475 1.5639571,53.702225 8.6172252,45.831192 M 39.432934,25.501642 c 11.632699,-4.338719 22.695162,-4.582331 27.271463,-0.137929 -0.142043,-0.32035 -0.301416,-0.630636 -0.477922,-0.9305 -4.570121,-6.528756 -18.134364,-6.365318 -31.989326,-0.82926"
       sodipodi:nodetypes="cccccccc" /><path
       d="m 101.89467,55.908473 h 10.81022 q 0.0739,0.979387 0.0739,2.753371 0,6.818753 -1.68159,8.444905 -1.66311,1.607674 -8.72209,1.607674 -6.670917,0 -8.574254,-1.903338 -1.903338,-1.921816 -1.903338,-8.592737 l -0.01848,-3.71428 0.01848,-2.235959 q 0,-5.599139 2.106607,-7.447039 2.125086,-1.8479 8.537305,-1.8479 6.43069,0 8.29707,1.219614 1.86638,1.201135 1.86638,5.395869 v 0.960908 h -2.79033 v -0.628286 q 0,-3.085994 -1.27505,-3.806675 -1.25658,-0.73916 -6.59701,-0.73916 -4.933892,0 -6.171986,1.182656 -1.238093,1.164178 -1.238093,5.857845 l -0.03696,3.3447 0.01848,3.603406 q 0,4.767583 1.367446,5.857844 1.385926,1.090261 7.354643,1.090261 4.56432,0 5.6361,-1.034824 1.09026,-1.034824 1.09026,-5.414348 0,-0.351101 -0.14783,-1.552237 h -8.01989 z m 32.97841,7.206811 h -12.769 l -1.94029,5.340433 h -3.01208 l 9.2395,-25.223841 h 3.99147 l 9.42429,25.223841 h -2.97512 z m -0.83156,-2.143564 -5.59914,-15.41149 -5.52522,15.41149 z m 14.2407,-17.739844 v 22.581343 h 12.97226 v 2.642498 H 145.43645 V 43.231876 Z m 34.05019,19.883408 h -12.76899 l -1.9403,5.340433 h -3.01208 l 9.2395,-25.223841 h 3.99147 l 9.42429,25.223841 h -2.97512 z m -0.83156,-2.143564 -5.59914,-15.41149 -5.52522,15.41149 z m 30.55766,-17.739844 -8.05684,12.177664 8.66665,13.046177 h -3.36318 l -5.83937,-8.832964 -0.92395,-1.385926 q -0.0739,-0.110874 -0.42501,-0.683723 l -0.4435,-0.702202 h -0.0739 l -0.44349,0.720681 q -0.36958,0.535891 -0.46198,0.702202 l -0.9609,1.404405 -5.93176,8.777527 h -3.49254 L 199.3265,55.40954 191.02942,43.231876 h 3.4371 l 5.59914,8.407947 0.77612,1.182656 q 0.14783,0.221748 0.38805,0.591328 l 0.36958,0.591328 h 0.0739 l 0.36958,-0.572849 q 0.29567,-0.498933 0.36958,-0.591328 l 0.75764,-1.164177 5.52522,-8.444905 z m 24.95852,0 -9.53517,14.690808 V 68.455717 H 224.6361 V 57.922684 l -9.29494,-14.690808 h 3.30774 l 5.41435,8.518821 1.03482,1.644631 q 0.20327,0.295664 0.51741,0.813076 l 0.49894,0.831555 h 0.0739 q 0.33262,-0.55437 0.49893,-0.831555 l 0.49894,-0.813076 1.0533,-1.644631 5.39587,-8.518821 z"
       id="text1-6"
       style="font-size:37.845px;font-family:Eurostile;-inkscape-font-specification:Eurostile;text-align:center;letter-spacing:3.04242px;text-anchor:middle;stroke-width:1.57688;stroke-linecap:round;stroke-linejoin:round;stroke-dashoffset:18.5507;paint-order:markers stroke fill;fill:#649cf1;fill-opacity:1"
       aria-label="GALAXY" /></g></svg>
